…
The package contains example data (a modified version of
expsmooth::gasprice) that can be used to try out the package:

``` r
library(tstools)
#> Loading required package: magrittr
#> Registered S3 method overwritten by 'quantmod':
#>   method            from
#>   as.zoo.data.frame zoo
head(dummy_gasprice)
#> # A tibble: 6 x 6
#>   year_month state    oil_company gasprice spotprice gemprice
#>   <date>     <chr>    <chr>          <dbl>     <dbl>    <dbl>
#> 1 1991-01-31 New York CompanyA        1.22      29.4     44.5
#> 2 1991-02-28 New York CompanyA        1.22      18.5     41.8
#> 3 1991-03-31 New York CompanyA        1.16      16.5     38.8
#> 4 1991-04-30 New York CompanyA        1.26      25.0     59.0
#> 5 1991-05-31 New York CompanyA        1.33      24.6     44.5
#> # ... with 1 more row
…
Once you loaded your data, you can pre-process it. One way to start this
stage can be to get different features of your columns (using
`get_column_features()`) such as the type, unique values and missing
values.

``` r
get_column_features(dummy_gasprice)
#> # A tibble: 6 x 4
#>   name        type      unique_values na_values
#>   <chr>       <chr>             <int>     <int>
#> 1 year_month  Date                191         0
#> 2 state       character             2         0
#> 3 oil_company character             2         0
#> 4 gasprice    numeric             764         0
#> 5 spotprice   numeric             764         0
#> # ... with 1 more row
```

Using the data function `add_grouping_column()`, which combines one or
more grouping columns into a single grouping column, you can summarize
the values in each of the specified group for every row :

``` r
add_grouping_column(
  data = dummy_gasprice,
  group_cols = c("state", "oil_company")
)
#> # A tibble: 764 x 7
#>   year_month state    oil_company gasprice spotprice gemprice
#>   <date>     <chr>    <chr>          <dbl>     <dbl>    <dbl>
#> 1 1991-01-31 New York CompanyA        1.22      29.4     44.5
#> 2 1991-02-28 New York CompanyA        1.22      18.5     41.8
#> 3 1991-03-31 New York CompanyA        1.16      16.5     38.8
#> 4 1991-04-30 New York CompanyA        1.26      25.0     59.0
#> 5 1991-05-31 New York CompanyA        1.33      24.6     44.5
#>   grouping                                     
#>   <chr>                                        
#> 1 state = New York   &   oil_company = CompanyA
#> 2 state = New York   &   oil_company = CompanyA
#> 3 state = New York   &   oil_company = CompanyA
#> 4 state = New York   &   oil_company = CompanyA
#> 5 state = New York   &   oil_company = CompanyA
#> # ... with 759 more rows
```
…
